<svg xmlns="http://www.w3.org/2000/svg" width="30" height="31" viewBox="0 0 30 31">
    <g fill="none" fill-rule="evenodd">
        <rect width="30" height="3" y="4" fill="#2E1A46" rx="1"/>
        <rect width="30" height="3" y="14" fill="#2E1A46" rx="1"/>
        <rect width="30" height="3" y="24" fill="#2E1A46" rx="1"/>
        <circle cx="7.5" cy="15.5" r="2.5" fill="#FFF"/>
        <circle cx="17.5" cy="5.5" r="2.5" fill="#FFF"/>
        <circle cx="23.5" cy="25.5" r="2.5" fill="#FFF"/>
        <path fill="#2E1A46" fill-rule="nonzero" d="M17.5 10.25a4.75 4.75 0 1 1 0-9.5 4.75 4.75 0 0 1 0 9.5zm0-2.5a2.25 2.25 0 1 0 0-4.5 2.25 2.25 0 0 0 0 4.5zM7.5 20.25a4.75 4.75 0 1 1 0-9.5 4.75 4.75 0 0 1 0 9.5zm0-2.5a2.25 2.25 0 1 0 0-4.5 2.25 2.25 0 0 0 0 4.5zM23.5 30.25a4.75 4.75 0 1 1 0-9.5 4.75 4.75 0 0 1 0 9.5zm0-2.5a2.25 2.25 0 1 0 0-4.5 2.25 2.25 0 0 0 0 4.5z"/>
    </g>
</svg>
